Practical Day Four
…
Warning: package 'nycflights13' was built under R version 4.3.3

Question 1

#=================================================================#
# Displaying DataSet using tibble                                 #
#=================================================================#
as_tibble(flights)

# A tibble: 336,776 × 19
    year month   day dep_time sched_dep_time dep_delay arr_time sched_arr_time
   <int> <int> <int>    <int>          <int>     <dbl>    <int>          <int>
 1  2013     1     1      517            515         2      830            819
 2  2013     1     1      533            529         4      850            830
 3  2013     1     1      542            540         2      923            850
 4  2013     1     1      544            545        -1     1004           1022
 5  2013     1     1      554            600        -6      812            837
 6  2013     1     1      554            558        -4      740            728
 7  2013     1     1      555            600        -5      913            854
 8  2013     1     1      557            600        -3      709            723
 9  2013     1     1      557            600        -3      838            846
10  2013     1     1      558            600        -2      753            745
# ℹ 336,766 more rows
# ℹ 11 more variables: arr_delay <dbl>, carrier <chr>, flight <int>,
#   tailnum <chr>, origin <chr>, dest <chr>, air_time <dbl>, distance <dbl>,
#   hour <dbl>, minute <dbl>, time_hour <dttm>
…
Question 3

Answering the question why is sd 0. There must be an observation equal to it mean making the deviation 0.

library(dplyr)
library(nycflights13)

# Find flights where distance equals the mean distance for that carrier
flights |> 
  group_by(carrier) |> 
  filter(distance == mean(distance, na.rm = TRUE)) |> 
  ungroup()

# A tibble: 1,741 × 19
    year month   day dep_time sched_dep_time dep_delay arr_time sched_arr_time
   <int> <int> <int>    <int>          <int>     <dbl>    <int>          <int>
 1  2013     1     1      724            725        -1     1020           1030
 2  2013     1     1      833            835        -2     1134           1102
 3  2013     1     1      857            900        -3     1516           1530
 4  2013     1     1     1716           1730       -14     1947           1953
 5  2013     1     1     1808           1815        -7     2111           2130
 6  2013     1     2      722            725        -3      949           1030
 7  2013     1     2      827            835        -8     1120           1102
 8  2013     1     2      909            900         9     1525           1530
 9  2013     1     2     1728           1730        -2     1952           1953
10  2013     1     2     1818           1815         3     2131           2130
# ℹ 1,731 more rows
# ℹ 11 more variables: arr_delay <dbl>, carrier <chr>, flight <int>,
#   tailnum <chr>, origin <chr>, dest <chr>, air_time <dbl>, distance <dbl>,
#   hour <dbl>, minute <dbl>, time_hour <dttm>
…
# Identify routes that more than one airline flies
routes_multiple_airlines <- flights |> 
  group_by(origin, dest) |> 
  summarise(airline_count = n_distinct(carrier)) |> 
  filter(airline_count > 1)

`summarise()` has grouped output by 'origin'. You can override using the
`.groups` argument.

# Display the result
print(routes_multiple_airlines)

# A tibble: 128 × 3
# Groups:   origin [3]
   origin dest  airline_count
   <chr>  <chr>         <int>
 1 EWR    ATL               4
 2 EWR    AUS               2
 3 EWR    BDL               2
 4 EWR    BNA               2
 5 EWR    BOS               3
 6 EWR    BWI               2
 7 EWR    CHS               2
 8 EWR    CLE               2
 9 EWR    CLT               3
10 EWR    CVG               2
# ℹ 118 more rows
(ii). For each such route, calculate the average arrival delay for each airline (exclude NAs). Find the names of these airlines.

# Calculate the average arrival delay for each airline on routes with more than one airline
average_delay_per_airline <- flights |> 
  filter(paste(origin, dest) %in% paste(routes_multiple_airlines$origin, routes_multiple_airlines$dest)) |> 
  group_by(origin, dest, carrier) |> 
  summarise(avg_arrival_delay = mean(arr_delay, na.rm = TRUE))

`summarise()` has grouped output by 'origin', 'dest'. You can override using
the `.groups` argument.

# Display the result
print(average_delay_per_airline)

# A tibble: 343 × 4
# Groups:   origin, dest [128]
   origin dest  carrier avg_arrival_delay
   <chr>  <chr> <chr>               <dbl>
 1 EWR    ATL   9E                  -6.25
 2 EWR    ATL   DL                  10.0 
 3 EWR    ATL   EV                  19.5 
 4 EWR    ATL   UA                  10.5 
 5 EWR    AUS   UA                   4.28
 6 EWR    AUS   WN                 -11.2 
 7 EWR    BDL   EV                   6.78
 8 EWR    BDL   UA                  22.6 
 9 EWR    BNA   EV                  17.7 
10 EWR    BNA   WN                  -2.13
# ℹ 333 more rows
…
`summarise()` has grouped output by 'origin'. You can override using the
`.groups` argument.

# Display the result
print(best_worst_airlines)

# A tibble: 128 × 6
# Groups:   origin [3]
   origin dest  best_airline worst_airline best_delay worst_delay
   <chr>  <chr> <chr>        <chr>              <dbl>       <dbl>
 1 EWR    ATL   9E           EV                -6.25        19.5 
 2 EWR    AUS   WN           UA               -11.2          4.28
 3 EWR    BDL   EV           UA                 6.78        22.6 
 4 EWR    BNA   WN           EV                -2.13        17.7 
 5 EWR    BOS   EV           B6                -4.01         6.87
 6 EWR    BWI   WN           EV                 5.95        20.1 
 7 EWR    CHS   UA           EV               -14           16.2 
 8 EWR    CLE   EV           UA                -3.71         5.97
 9 EWR    CLT   US           EV                 0.920       20.5 
10 EWR    CVG   9E           EV                 1.40        21.2 
# ℹ 118 more rows
…
(v). This could be the result of the operational issue.

Question 7

# dput() output as a data frame
Q7_data

# A tibble: 50 × 15
   id      age gender height weight blood_type disease_status cholesterol
   <chr> <int> <chr>   <dbl>  <dbl> <chr>      <chr>                <dbl>
 1 id_1     50 male     174.   69.4 O          diseased               228
 2 id_2     34 male     198.   62.3 A          healthy                223
 3 id_3     70 male     174.   55.6 O          healthy                213
 4 id_4     33 female   194.   69.5 O          healthy                198
 5 id_5     22 female    NA    78.6 B          healthy                166
 6 id_6     61 male     180.   60.8 AB         healthy                151
 7 id_7     69 female   170.   72.2 O          diseased               195
 8 id_8     73 male     157.   60.9 O          healthy                199
 9 id_9     62 male     197.   75.1 O          diseased               189
10 id_10    56 female   165.   67.7 AB         Healthy                196
# ℹ 40 more rows
# ℹ 7 more variables: glucose <dbl>, smoker <chr>, exercise <chr>,
#   income <int>, education <chr>, region <chr>, marital_status <chr>
…
